{
  "name": "fontello",
  "css_prefix_text": "icon-",
  "css_use_suffix": false,
  "hinting": true,
  "units_per_em": 1000,
  "ascent": 850,
  "glyphs": [
    {
      "uid": "ff9a85aa20950dcc0615a2707a2b3f8e",
      "css": "right-dir",
      "code": 59392,
      "src": "entypo"
    },
    {
      "uid": "9aeaf29161eb005a308bbd624d6e066a",
      "css": "left-dir",
      "code": 59393,
      "src": "entypo"
    },
    {
      "uid": "9dc654095085167524602c9acc0c5570",
      "css": "left-dir-1",
      "code": 59394,
      "src": "fontawesome"
    },
    {
      "uid": "fb1c799ffe5bf8fb7f8bcb647c8fe9e6",
      "css": "right-dir-1",
      "code": 59395,
      "src": "fontawesome"
    },
    {
      "uid": "6f7586c6f99798c3c1de6123d1f6cfa9",
      "css": "facebook",
      "code": 59396,
      "src": "zocial"
    },
    {
      "uid": "4c1ef492f1d2c39a2250ae457cee2a6e",
      "css": "instagram",
      "code": 61805,
      "src": "fontawesome"
    },
    {
      "uid": "4c01f5d3ba5fbf029bca8630cce41e6a",
      "css": "twitter-bird",
      "code": 62211,
      "src": "brandico"
    },
    {
      "uid": "f11c9e95ae5eaa84d193e8fa1d38c6f9",
      "css": "down-open-mini",
      "code": 59397,
      "src": "entypo"
    },
    {
      "uid": "9e251fb8e9e1c71ab09683468e0479a3",
      "css": "up-open-mini",
      "code": 59398,
      "src": "entypo"
    },
    {
      "uid": "9c7ff134960bb5a82404e4aeaab366d9",
      "css": "up-open",
      "code": 59399,
      "src": "entypo"
    },
    {
      "uid": "8704cd847a47b64265b8bb110c8b4d62",
      "css": "down-open",
      "code": 59400,
      "src": "entypo"
    },
    {
      "uid": "c311c48d79488965b0fab7f9cd12b6b5",
      "css": "left-open",
      "code": 59401,
      "src": "entypo"
    },
    {
      "uid": "749e7d90a9182938180f1d2d8c33584e",
      "css": "right-open",
      "code": 59402,
      "src": "entypo"
    },
    {
      "uid": "592717bd601645d61517d2a584d04127",
      "css": "left-open-mini",
      "code": 59403,
      "src": "entypo"
    },
    {
      "uid": "37f6cfbb4062ed0d01b351ec35c334ff",
      "css": "right-open-mini",
      "code": 59404,
      "src": "entypo"
    },
    {
      "uid": "517522647a556192fbc78aa391b7b0c2",
      "css": "cancel-circled-outline",
      "code": 59405,
      "src": "typicons"
    },
    {
      "uid": "188e881b2e2f2b1eb350eb7697aabafd",
      "css": "cancel-circle",
      "code": 59406,
      "src": "iconic"
    },
    {
      "uid": "0f4cae16f34ae243a6144c18a003f2d8",
      "css": "cancel-circled",
      "code": 59407,
      "src": "fontawesome"
    }
  ]
}